Division,WeightClassKg,Place,Name,Team,BodyweightKg,Best3SquatKg,Best3BenchKg,Best3DeadliftKg,TotalKg,Equipment,Event,Sex
Varsity,51.71,1,LA Gonzalez,Alice,51.53,181.44,92.99,158.76,433.18,Single-ply,SBD,M
Varsity,51.71,2,Jeremy Martinez,Robstown,50.98,136.08,65.77,163.29,365.14,Single-ply,SBD,M
Varsity,51.71,3,Blake Suarez,Corpus Christi Tuloso-Midway,51.35,142.88,68.04,142.88,353.8,Single-ply,SBD,M
Varsity,51.71,4,Eloy Garza,Corpus Christi West Oso,51.62,136.08,65.77,142.88,344.73,Single-ply,SBD,M
Varsity,51.71,5,Cody Juarez,Alice,46.45,136.08,74.84,124.74,335.66,Single-ply,SBD,M
Varsity,51.71,6,Devin Cowen,Rockport-Fulton,49.9,99.79,49.9,120.2,269.89,Single-ply,SBD,M
Varsity,51.71,7,JT Bryce,George West,50.8,102.06,49.9,102.06,254.01,Single-ply,SBD,M
Varsity,55.79,1,Joe Castillo #4,Gregory-Portland,54.98,165.56,95.25,181.44,442.25,Single-ply,SBD,M
Varsity,55.79,2,Mike Nunez,Corpus Christi West Oso,55.7,142.88,63.5,142.88,349.27,Single-ply,SBD,M
Varsity,55.79,3,Ulysses Botella,Banquete,53.43,111.13,72.57,122.47,306.17,Single-ply,SBD,M
Varsity,55.79,DQ,Joel Garza,Corpus Christi Calallen,54.34,127.01,72.57,,,Single-ply,SBD,M
Varsity,59.87,1,Marcos Lara,Mathis,59.78,165.56,113.4,192.78,471.74,Single-ply,SBD,M
Varsity,59.87,2,Cody Hartman,Corpus Christi West Oso,59.87,174.63,106.59,183.7,464.93,Single-ply,SBD,M
Varsity,67.13,3,Jonathan Galvan,Corpus Christi Tuloso-Midway,60.06,158.76,102.06,165.56,426.38,Single-ply,SBD,M
Varsity,67.13,4,Arturo Reyna,Bishop,60.06,142.88,90.72,163.29,396.89,Single-ply,SBD,M
Varsity,59.87,5,Dylan Breland,Banquete,58.88,145.15,79.38,165.56,390.09,Single-ply,SBD,M
Varsity,59.87,DQ,Patrick Ayala,Banquete,59.51,,,,,Single-ply,SBD,M
Varsity,74.84,1,Aaron Martinez,Corpus Christi Calallen,67.36,208.65,122.47,213.19,544.31,Single-ply,SBD,M
Varsity,74.84,2,Rene Luna,Alice,67.36,197.31,129.27,199.58,526.17,Single-ply,SBD,M
Varsity,67.13,3,Alonzo Moya,Corpus Christi West Oso,64.14,192.78,97.52,204.12,494.42,Single-ply,SBD,M
Varsity,67.13,4,JP Ruth,Gregory-Portland,65.86,179.17,111.13,201.85,492.15,Single-ply,SBD,M
Varsity,67.13,5,Chantz Mickens,Corpus Christi Tuloso-Midway,61.87,188.24,92.99,183.7,464.93,Single-ply,SBD,M
Varsity,67.13,6,Alex Gonzales #2,Alice,65.05,181.44,92.99,179.17,453.59,Single-ply,SBD,M
Varsity,67.13,7,Daniel Tortu,Corpus Christi West Oso,61.42,167.83,99.79,174.63,442.25,Single-ply,SBD,M
Varsity,67.13,8,Erasmo Aguilar,Alice,62.6,183.7,72.57,179.17,435.45,Single-ply,SBD,M
Varsity,67.13,9,Isaiah Dennis,Pettus,66.68,154.22,88.45,181.44,424.11,Single-ply,SBD,M
Varsity,67.13,10,Marc Ridell,Banquete,66.22,151.95,86.18,165.56,403.7,Single-ply,SBD,M
Varsity,67.13,11,Kyle Castaneda,Banquete,67.13,136.08,102.06,151.95,390.09,Single-ply,SBD,M
Varsity,67.13,12,Lance Glew,Skidmore-Tynan,64.14,142.88,68.04,133.81,344.73,Single-ply,SBD,M
Varsity,67.13,DQ,Aaron Garcia,Alice,64.41,195.04,115.67,,,Single-ply,SBD,M
Varsity,74.84,1,Javier Rodriguez,San Diego,73.3,226.8,136.08,217.72,580.6,Single-ply,SBD,M
Varsity,74.84,2,Gabriel Cantu,Corpus Christi Calallen,71.85,217.72,122.47,235.87,576.06,Single-ply,SBD,M
Varsity,74.84,3,Alex Rocha,Skidmore-Tynan,74.03,215.46,142.88,199.58,557.92,Single-ply,SBD,M
Varsity,74.84,4,Taylor Nguyen,Rockport-Fulton,73.48,195.04,117.93,195.04,508.02,Single-ply,SBD,M
Varsity,74.84,5,Chris Madrigal,Beeville Jones,73.48,181.44,106.59,199.58,487.61,Single-ply,SBD,M
Varsity,74.84,6,Tristen Taylor,Rockport-Fulton,73.57,192.78,102.06,192.78,487.61,Single-ply,SBD,M
Varsity,74.84,7,Chris Lopez,Corpus Christi Calallen,74.21,172.37,122.47,188.24,483.08,Single-ply,SBD,M
Varsity,74.84,8,Jeremy Hernandez,Corpus Christi West Oso,72.3,181.44,92.99,170.1,444.52,Single-ply,SBD,M
Varsity,74.84,9,Derrick Carroll,Beeville Jones,69.31,172.37,86.18,172.37,430.91,Single-ply,SBD,M
Varsity,74.84,10,Bradley Allen,Rockport-Fulton,67.95,138.35,77.11,133.81,349.27,Single-ply,SBD,M
Varsity,82.1,1,Jonathan Gonzalez,San Diego,76.57,233.6,156.49,226.8,616.89,Single-ply,SBD,M
Varsity,82.1,2,Sean Gonzales,Corpus Christi Calallen,79.65,217.72,131.54,206.38,555.65,Single-ply,SBD,M
Varsity,89.81,3,Angel Casas,Corpus Christi Tuloso-Midway,82.28,208.65,131.54,208.65,548.85,Single-ply,SBD,M
Varsity,82.1,4,Justin Rodriguez,Corpus Christi Tuloso-Midway,79.56,226.8,102.06,190.51,519.36,Single-ply,SBD,M
Varsity,89.81,5,Elijah Holifield,Skidmore-Tynan,82.19,181.44,99.79,213.19,494.42,Single-ply,SBD,M
Varsity,82.1,6,Josh D Perez,Beeville Jones,76.29,172.37,111.13,183.7,467.2,Single-ply,SBD,M
Varsity,82.1,7,Jonathan Castillo,Sinton,80.47,172.37,102.06,192.78,467.2,Single-ply,SBD,M
Varsity,82.1,8,Patrick Prieto,Beeville Jones,77.56,183.7,92.99,183.7,460.4,Single-ply,SBD,M
Varsity,82.1,9,Chase Benavides,Corpus Christi Tuloso-Midway,80.83,163.29,102.06,172.37,437.72,Single-ply,SBD,M
Varsity,82.1,10,Andrew Aguilar,Robstown,79.02,142.88,102.06,142.88,387.82,Single-ply,SBD,M
Varsity,82.1,11,Zachariah Segovia,Beeville Jones,76.02,90.72,65.77,115.67,272.16,Single-ply,SBD,M
Varsity,82.1,DQ,Ben Torres,Alice,76.38,190.51,,,,Single-ply,SBD,M
Varsity,89.81,DQ,Rey Ferrer,Kingsville King,82.28,206.38,,,,Single-ply,SBD,M
Varsity,82.1,DQ,Milton Sarceno,Kingsville King,79.92,226.8,151.95,,,Single-ply,SBD,M
Varsity,89.81,1,Karl Gibson,Mathis,89.27,240.4,136.08,231.33,607.81,Single-ply,SBD,M
Varsity,89.81,2,JD Zapata,Rockport-Fulton,89.54,215.46,122.47,219.99,557.92,Single-ply,SBD,M
Varsity,89.81,3,Rolly Torres,San Diego,88,213.19,136.08,201.85,551.11,Single-ply,SBD,M
Varsity,89.81,4,Martin Fonseca,Mathis,85.09,204.12,124.74,219.99,548.85,Single-ply,SBD,M
Varsity,99.79,5,Jon Andrew Villarreal,Corpus Christi West Oso,89.9,192.78,129.27,226.8,548.85,Single-ply,SBD,M
Varsity,89.81,6,Rene Corona,San Diego,86.09,197.31,122.47,213.19,532.97,Single-ply,SBD,M
Varsity,89.81,7,John Tanguma,Corpus Christi Calallen,86.64,163.29,131.54,208.65,503.49,Single-ply,SBD,M
Varsity,89.81,8,Raul Fernandez,Rockport-Fulton,87.72,181.44,102.06,165.56,449.06,Single-ply,SBD,M
Varsity,89.81,9,Dylan Dedear,Pettus,83.19,122.47,79.38,158.76,360.61,Single-ply,SBD,M
Varsity,89.81,DQ,Geraldo Martinez,Rockport-Fulton,84.19,,,,,Single-ply,SBD,M
Varsity,89.81,DQ,Abel Rodriguez,Corpus Christi Tuloso-Midway,84.46,,,,,Single-ply,SBD,M
Varsity,99.79,1,John Rivera,Alice,99.34,294.84,185.97,242.67,723.48,Single-ply,SBD,M
Varsity,99.79,2,Aaron Rodriguez,Beeville Jones,99.06,297.1,172.37,219.99,689.46,Single-ply,SBD,M
Varsity,99.79,3,Matthew Dickson,Corpus Christi Tuloso-Midway,92.35,263.08,158.76,258.55,680.39,Single-ply,SBD,M
Varsity,99.79,4,Jose Moreno,San Diego,96.52,258.55,140.61,260.82,659.98,Single-ply,SBD,M
Varsity,109.77,5,Frankie Lopez,Corpus Christi Tuloso-Midway,99.97,278.96,163.29,215.46,657.71,Single-ply,SBD,M
Varsity,99.79,6,Zach Kwiatkowski,Corpus Christi West Oso,97.79,247.21,142.88,247.21,637.3,Single-ply,SBD,M
Varsity,99.79,7,Aaron Puga,Beeville Jones,94.53,240.4,136.08,215.46,591.94,Single-ply,SBD,M
Varsity,99.79,8,Aaron Hinojosa,San Diego,97.89,213.19,140.61,176.9,530.7,Single-ply,SBD,M
Varsity,99.79,9,Eric Gutierrez,Robstown,94.89,204.12,113.4,192.78,510.29,Single-ply,SBD,M
Varsity,99.79,10,Arnold Molina,Sinton,96.07,181.44,106.59,185.97,474,Single-ply,SBD,M
Varsity,99.79,DQ,Jason Patterson,Kingsville King,97.79,258.55,138.35,,,Single-ply,SBD,M
Varsity,109.77,1,Andres Arizu,Alice,109.13,317.51,188.24,263.08,768.84,Single-ply,SBD,M
Varsity,109.77,2,Javier Henderson,Mathis,108.68,281.23,142.88,204.12,628.23,Single-ply,SBD,M
Varsity,109.77,3,Matthew German,Rockport-Fulton,105.23,249.48,136.08,235.87,621.42,Single-ply,SBD,M
Varsity,109.77,4,Vince Guetierrez,Corpus Christi Tuloso-Midway,104.51,240.4,154.22,213.19,607.81,Single-ply,SBD,M
Varsity,109.77,5,Andrew Pena,Robstown,107.14,235.87,147.42,206.38,589.67,Single-ply,SBD,M
Varsity,109.77,6,Adrian Puga,Beeville Jones,107.68,238.14,145.15,204.12,587.4,Single-ply,SBD,M
Varsity,109.77,7,Oscar Cantu,Sinton,101.33,217.72,136.08,226.8,580.6,Single-ply,SBD,M
Varsity,109.77,8,Adrian Rivas,Sinton,103.33,213.19,136.08,199.58,548.85,Single-ply,SBD,M
Varsity,109.77,9,Josh Sturgeon,Corpus Christi West Oso,104.96,213.19,113.4,213.19,539.77,Single-ply,SBD,M
Varsity,109.77,10,Jeremy Trevino,Gregory-Portland,108.86,208.65,113.4,199.58,521.63,Single-ply,SBD,M
Varsity,109.77,11,Seth Watts,Gregory-Portland,108.77,197.31,124.74,197.31,519.36,Single-ply,SBD,M
Varsity,109.77,12,Chris Monsiviais,Corpus Christi Calallen,106.96,176.9,124.74,204.12,505.76,Single-ply,SBD,M
Varsity,109.77,13,Steve Covarrubias,Robstown,103.24,183.7,108.86,190.51,483.08,Single-ply,SBD,M
Varsity,109.77,14,Jose Chavera,Banquete,105.6,185.97,90.72,204.12,480.81,Single-ply,SBD,M
Varsity,109.77,15,Antonio Cantu,Sinton,108.41,172.37,120.2,183.7,476.27,Single-ply,SBD,M
Varsity,109.77,16,Alex Martinez #7,Kingsville King,103.87,161.03,97.52,195.04,453.59,Single-ply,SBD,M
Varsity,124.74,1,Rene Gonzales,Mathis,122.65,301.64,192.78,235.87,730.28,Single-ply,SBD,M
Varsity,124.74,2,Jacob Rodriguez #4,Corpus Christi Tuloso-Midway,120.38,306.17,154.22,244.94,705.34,Single-ply,SBD,M
Varsity,124.74,3,Isaac Salinas #1,Gregory-Portland,118.3,276.69,172.37,235.87,684.92,Single-ply,SBD,M
Varsity,124.74,4,Joey Rodriguez,Corpus Christi West Oso,117.39,226.8,124.74,215.46,566.99,Single-ply,SBD,M
Varsity,124.74,5,Jagger Weatherford,Gregory-Portland,118.12,190.51,117.93,190.51,498.95,Single-ply,SBD,M
Varsity,124.74,DQ,Jose Aguero,Sinton,118.3,240.4,,,,Single-ply,SBD,M
Varsity,124.74+,1,Alexander Acosta,Skidmore-Tynan,127.55,272.16,181.44,278.96,732.55,Single-ply,SBD,M
Varsity,124.74+,2,Mikey Esparza,Rockport-Fulton,127.64,294.84,170.1,240.4,705.34,Single-ply,SBD,M
Varsity,124.74+,3,Jonathan Lopez,Banquete,136.44,308.44,170.1,222.26,700.8,Single-ply,SBD,M
Varsity,124.74+,4,Jesse James Saldivar,Alice,158.85,294.84,145.15,204.12,644.1,Single-ply,SBD,M
Varsity,124.74+,5,John Lazo,Alice,161.75,263.08,158.76,204.12,625.96,Single-ply,SBD,M
Varsity,124.74+,6,Joe Rodriguez,Kingsville King,128.09,254.01,133.81,231.33,619.15,Single-ply,SBD,M
Varsity,124.74+,7,David Ramirez,Robstown,140.7,195.04,117.93,181.44,494.42,Single-ply,SBD,M
Varsity,124.74+,8,Dante Boggiano,Banquete,135.62,147.42,79.38,131.54,358.34,Single-ply,SBD,M
Varsity,124.74+,9,Billy Moon,Pettus,156.04,54.43,49.9,117.93,222.26,Single-ply,SBD,M
Varsity,,NS,David Sendejo,Kingsville King,,,,,,Single-ply,SBD,M
Junior Varsity,51.71,DQ,Marcus Gaza,Alice,46.18,108.86,,,,Single-ply,SBD,M
Junior Varsity,55.79,1,Jesus Martinez,San Diego,55.25,70.31,43.09,92.99,206.38,Single-ply,SBD,M
Junior Varsity,67.13,1,Garrett Hight,Corpus Christi Calallen,59.96,127.01,83.91,145.15,356.07,Single-ply,SBD,M
Junior Varsity,59.87,2,Chris Vasquez,Corpus Christi Calallen,59.69,131.54,72.57,136.08,340.19,Single-ply,SBD,M
Junior Varsity,59.87,3,Shawn Charles,Corpus Christi Calallen,57.33,111.13,61.23,136.08,308.44,Single-ply,SBD,M
Junior Varsity,59.87,4,Ben Schneider,Corpus Christi Calallen,57.06,99.79,58.97,122.47,281.23,Single-ply,SBD,M
Junior Varsity,67.13,DQ,Joseph Reyes,Alice,60.06,181.44,61.23,,,Single-ply,SBD,M
Junior Varsity,74.84,1,Oscar Camarillo,Alice,67.22,188.24,115.67,183.7,487.61,Single-ply,SBD,M
Junior Varsity,67.13,2,Joshua Figuerroa,Corpus Christi Tuloso-Midway,63.68,156.49,97.52,142.88,396.89,Single-ply,SBD,M
Junior Varsity,67.13,3,Brandon Charles,Corpus Christi Calallen,66.86,142.88,83.91,165.56,392.36,Single-ply,SBD,M
Junior Varsity,74.84,4,Christian Alvarado,Corpus Christi Calallen,67.31,147.42,79.38,165.56,392.36,Single-ply,SBD,M
Junior Varsity,67.13,DQ,Kelton Croxton,Kingsville King,61.23,,,,,Single-ply,SBD,M
Junior Varsity,74.84,1,Austen Flores #2,Corpus Christi Calallen,72.03,115.67,65.77,151.95,333.39,Single-ply,SBD,M
Junior Varsity,74.84,2,Fabian Navarro,Kingsville King,70.22,113.4,77.11,138.35,328.85,Single-ply,SBD,M
Junior Varsity,74.84,3,Miguel Salas,Bishop,68.67,99.79,77.11,124.74,301.64,Single-ply,SBD,M
Junior Varsity,82.1,1,Marc Garcia,Alice,78.83,210.92,115.67,210.92,537.51,Single-ply,SBD,M
Junior Varsity,82.1,2,Allan Medrano,Bishop,81.37,147.42,106.59,174.63,428.64,Single-ply,SBD,M
Junior Varsity,82.1,DQ,Ethan Gonzalez #4,Alice,81.83,,,,,Single-ply,SBD,M
Junior Varsity,82.1,DQ,Luis Perez,Kingsville King,75.75,,,,,Single-ply,SBD,M
Junior Varsity,82.1,DQ,Jeremiah Munoz,Corpus Christi Tuloso-Midway,78.2,,,,,Single-ply,SBD,M
Junior Varsity,89.81,1,Brandon Mejia,Corpus Christi West Oso,87.54,156.49,102.06,170.1,428.64,Single-ply,SBD,M
Junior Varsity,89.81,2,John Castro,Corpus Christi Tuloso-Midway,88.36,154.22,108.86,165.56,428.64,Single-ply,SBD,M
Junior Varsity,89.81,3,Saulo Ramos,Kingsville King,83.37,147.42,68.04,138.35,353.8,Single-ply,SBD,M
Junior Varsity,89.81,DQ,Jonas De La Garza,Corpus Christi Calallen,88.27,,,,,Single-ply,SBD,M
Junior Varsity,99.79,1,Angel Rodríguez #10,Corpus Christi West Oso,96.62,183.7,142.88,158.76,485.34,Single-ply,SBD,M
Junior Varsity,99.79,2,Adam Gonzalez,Kingsville King,94.62,154.22,79.38,154.22,387.82,Single-ply,SBD,M
Junior Varsity,99.79,3,Chase Higgins,Corpus Christi Tuloso-Midway,92.71,129.27,70.31,149.69,349.27,Single-ply,SBD,M
Junior Varsity,109.77,DQ,Esteban Ruiz,Corpus Christi Tuloso-Midway,99.97,,,,,Single-ply,SBD,M
Junior Varsity,109.77,1,Duque Weddill,Corpus Christi Calallen,106.78,142.88,90.72,149.69,383.29,Single-ply,SBD,M
Junior Varsity,109.77,2,Julian Beltran,Corpus Christi Calallen,108.59,136.08,77.11,140.61,353.8,Single-ply,SBD,M
Junior Varsity,124.74,1,Jaime Castillo #2,Corpus Christi Tuloso-Midway,110.95,151.95,90.72,136.08,378.75,Single-ply,SBD,M
Junior Varsity,124.74+,1,Bernie Zarate,Kingsville King,135.17,170.1,92.99,183.7,446.79,Single-ply,SBD,M
Junior Varsity,124.74+,2,George Hughes,San Diego,129.09,181.44,104.33,149.69,435.45,Single-ply,SBD,M
