Place,Name,Sex,BirthDate,Age,State,Equipment,Division,BodyweightKg,WeightClassKg,Squat1Kg,Squat2Kg,Squat3Kg,Best3SquatKg,Bench1Kg,Bench2Kg,Bench3Kg,Best3BenchKg,Deadlift1Kg,Deadlift2Kg,Deadlift3Kg,Best3DeadliftKg,TotalKg,Event
1,JaNiyah Cross,F,2007-07-30,14,VA,Raw,J13-15,65,67.5,88,93,95,95,42,45,48,48,141,144,146,146,289,SBD
1,Monet Stephenson,F,1978-10-31,43,,Raw,M40-44,122,125,-100,100,102,102,56,58,60,60,113,115,118,118,280,SBD
1,Wanda McNair,F,1968-01-19,54,VA,Raw,M50-54,67,67.5,39,43,47,47,25,28,31,31,94,-102,107,107,185,SBD
1,Melissa Hope,F,1969-04-21,53,VA,Raw,M50-54,73,75,100,108,-112,108,52,54,-56,54,118,123,131,131,293,SBD
1,Melissa Hope,F,1969-04-21,53,VA,Raw,Open,73,75,100,108,-112,108,52,54,-56,54,118,123,131,131,293,SBD
1,Karen Loftis,F,,35,VA,Raw,Open,82,82.5,110,119,125,125,66,-73,73,73,130,137,143,143,341,SBD
1,Domineque Jack,F,1990-12-11,31,VA,Raw,Open,86,90,76,82,88,88,53,57,-62,57,108,117,126,126,271,SBD
1,Alissa Johnson,F,1997-09-11,24,VA,Raw,Open,93,100,104,111,-114,111,39,42,-46,42,109,117,123,123,276,SBD
1,Imani Mubarak,F,1990-03-20,,VA,Raw,Open,106,110,103,110,-116,110,61,64,-67,64,112,116,121,121,295,SBD
1,Monet Stephenson,F,1978-10-31,43,,Raw,Open,122,125,-100,100,102,102,56,58,60,60,113,115,118,118,280,SBD
1,Linzie Mechling,F,1984-02-26,38,VA,Raw,S35-39,110,110,137,147,159,159,80,86,-91,86,155,167,179,179,424,SBD
1,Kenneth Horner,M,1963-05-01,59,VA,Raw,M55-59,109,110,84,96,105,105,114,122,129,129,130,141,150,150,384,SBD
1,Caio Clauson,M,2003-12-11,18,VA,Raw,J18-19,80,82.5,150,165,175,175,100,108,-114,108,165,180,190,190,473,SBD
2,Ethan Dobbins,M,2003-12-08,18,VA,Raw,J18-19,81,82.5,141,150,-159,150,71,78,-86,78,175,193,-205,193,421,SBD
1,Aidan Ashby,M,,22,VA,Raw,J20-23,74,75,195,202,220,220,116,125,-137,125,181,200,216,216,561,SBD
1,Jacob Burroughs,M,1999-03-15,23,VA,Raw,J20-23,88,90,202,209,-215,209,135,141,144,144,243,-257,-257,243,596,SBD
1,David Ayala,M,2002-03-16,20,VA,Raw,J20-23,91,100,174,184,193,193,-108,118,-134,118,183,198,213,213,524,SBD
1,Johnnie McKeller,M,1981-12-13,40,VA,Raw,M40-44,123,125,159,177,-191,177,150,-160,-160,150,-196,-196,196,196,523,SBD
1,Danny Stinson,M,1976-01-03,46,VA,Raw,M45-49,151,140+,-229,-236,245,245,-169,173,-177,173,230,236,243,243,661,SBD
1,Jeffrey Bennington,M,1964-12-20,57,VA,Raw,M55-59,94,100,100,107,114,114,-87,95,,95,149,161,174,174,383,SBD
1,Aldrin Zaremba,M,1989-08-14,32,VA,Raw,Open,60,60,134,-143,147,147,71,79,-91,79,152,166,183,183,409,SBD
1,Ziggy Corcuera,M,1996-02-25,26,VA,Raw,Open,71,75,149,165,-175,165,85,-95,95,95,170,190,201,201,461,SBD
1,Ethan Dobbins,M,2003-12-08,18,VA,Raw,Open,81,82.5,141,150,-159,150,71,78,-86,78,175,193,-205,193,421,SBD
1,Jacob Burroughs,M,1999-03-15,23,VA,Raw,Open,88,90,202,209,-215,209,135,141,144,144,243,-257,-257,243,596,SBD
2,Corey Kellen,M,1999-11-06,22,,Raw,Open,89,90,172,182,-208,182,-122,122,-143,122,213,240,248,248,552,SBD
DQ,David Marshalll,M,1988-07-07,33,VA,Raw,Open,85,90,-184,-184,-184,,,,,,,,,,,SBD
1,Javoris Pettaway,M,1996-08-01,25,AL,Raw,Open,102,110,175,182,188,188,111,117,123,123,211,219,228,228,539,SBD
1,Kevin Darnell McClinton,M,1988-02-09,34,VA,Raw,Open,114,125,-207,-207,207,207,-142,142,-150,142,207,212,217,217,566,SBD
2,Johnnie McKeller,M,1981-12-13,40,VA,Raw,Open,123,125,159,177,-191,177,150,-160,-160,150,-196,-196,196,196,523,SBD
1,Chad Dunn,M,,34,VA,Raw,Open,138,140,289,311,-318,311,170,185,-191,185,306,329,-342,329,825,SBD
1,Danny Stinson,M,1976-01-03,46,VA,Raw,Open,151,140+,-229,-236,245,245,-169,173,-177,173,230,236,243,243,661,SBD
2,Patrick Hannon,M,,35,VA,Raw,Open,165,140+,214,224,232,232,138,144,146,146,229,237,241,241,619,SBD
1,Steve Derooy,M,1986-06-20,35,VA,Raw,S35-39,97,100,185,195,205,205,134,143,150,150,190,206,227,227,582,SBD
2,Josh Cue,M,1983-03-19,,VA,Raw,S35-39,99,100,185,-195,195,195,130,-136,,130,230,245,257,257,582,SBD
1,Patrick Hannon,M,,35,VA,Raw,S35-39,165,140+,214,224,232,232,138,144,146,146,229,237,241,241,619,SBD
1,Russ Hayford,M,1968-08-26,53,VA,Wraps,M50-54,98,100,243,261,-272,261,139,147,152,152,229,241,-249,241,654,SBD
1,Marcos Davila-Banrey,M,1992-01-10,30,VA,Wraps,Open,98,100,-234,245,-254,245,143,152,-157,152,228,239,-249,239,636,SBD
2,Joe Sunderman,M,1988-01-07,34,VA,Wraps,Open,97,100,192,197,202,202,130,136,140,140,215,222,227,227,569,SBD
1,Wendell Hill,M,1990-11-06,31,VA,Wraps,Open,129,140,183,223,241,241,137,150,159,159,183,225,-241,225,625,SBD
1,Gary Grissinger,M,1962-02-08,60,VA,Single-ply,M60-64,98,100,273,288,-296,288,125,161,171,171,300,325,-342,325,784,SBD
1,Kenneth Horner,M,1963-05-01,59,VA,Raw,M55-59,109,110,,,,,114,122,129,129,130,141,150,150,279,BD
