Sex,Equipment,Division,Age,WeightClassKg,Name,BodyweightKg,Best3SquatKg,Best3BenchKg,Best3DeadliftKg,TotalKg,Event,Place,BirthDate
F,Raw,Amateur Open,,48,Veronica Ng,47.63,81.65,47.63,129.27,258.55,SBD,1,
F,Raw,Amateur Open,,52,Jackie Hwang,51.98,104.33,52.16,115.67,272.16,SBD,1,
F,Raw,Pro Open,,56,Cassi Addamo,54.34,102.06,68.04,156.49,326.59,SBD,1,
F,Raw,Amateur Submasters 33-39,,56,Lyndsay Werner,55.88,70.31,40.82,111.13,222.26,SBD,1,
F,Wraps,Pro Juniors 20-23,,56,Nicole Holstein,55.16,124.74,63.5,136.08,324.32,SBD,1,
F,Wraps,Pro Open,,56,Nicole Holstein,55.16,124.74,63.5,136.08,324.32,SBD,1,
F,Wraps,Amateur Masters 50-54,,56,Shira Bardfield,55.34,127.01,52.16,124.74,303.91,SBD,1,1965-12-06
F,Raw,Amateur Juniors 20-23,,60,Taylor Ruotilio,59.51,95.25,49.9,127.01,272.16,SBD,1,
F,Wraps,Amateur Open,,60,Monique Aviles,58.24,86.18,47.63,117.93,251.74,SBD,1,
F,Wraps,Elite Open,,60,Rachel Isaacs,58.97,97.52,65.77,129.27,292.57,SBD,1,
F,Raw,Amateur Masters 40-44,,67.5,Ivette Sosa Dempsey,65.32,68.04,34.02,83.91,185.97,SBD,1,
F,Raw,Amateur Masters 50-54,,67.5,Tanya Davis,65.41,70.31,45.36,108.86,224.53,SBD,2,
F,Raw,Amateur Masters 50-54,,67.5,Penny Schlough,62.32,90.72,58.97,111.13,260.82,SBD,1,
F,Raw,Amateur Masters 60-64,,67.5,Doreen Coghlan,62.69,61.23,43.09,79.38,183.7,SBD,1,
F,Raw,Amateur Open,,67.5,Alexandra Cook,67.13,79.38,47.63,99.79,226.8,SBD,2,
F,Raw,Amateur Open,,67.5,Ashley York-Kurtz,64.77,115.67,70.31,138.35,324.32,SBD,1,
F,Raw,Amateur Teen 16-17,,67.5,Alexis Rocker,67.4,97.52,63.5,113.4,274.42,SBD,1,
F,Wraps,Amateur Juniors 20-23,,67.5,Alexandra Trezza,65.14,108.86,58.97,149.69,317.51,SBD,1,
F,Wraps,Amateur Masters 40-44,,67.5,Danielle Menniti,64.77,86.18,52.16,127.01,265.35,SBD,1,
F,Wraps,Amateur Open,,67.5,Kiersten Zaza,66.22,97.52,54.43,111.13,263.08,SBD,2,
F,Wraps,Amateur Open,,67.5,Kristin Bett,62.14,108.86,68.04,140.61,317.51,SBD,1,
F,Wraps,Pro Open,,67.5,Fina Matranga,67.13,161.03,79.38,161.03,401.43,SBD,2,
F,Raw,Amateur Juniors 20-23,,75,Jamie Zimmerman,71.76,117.93,61.23,145.15,324.32,SBD,1,
F,Raw,Amateur Masters 40-44,,75,Christine Allen,72.94,106.59,65.77,117.93,290.3,SBD,2,
F,Raw,Amateur Masters 40-44,,75,Heather Conway,70.58,117.93,86.18,131.54,335.66,SBD,1,
F,Raw,Amateur Masters 60-64,,75,Leona McStine-Cupo,67.86,70.31,45.36,97.52,213.19,SBD,1,
F,Raw,Amateur Open,,75,Carol Rose,70.67,90.72,72.57,127.01,290.3,SBD,4,
F,Raw,Amateur Open,,75,Alyssa DeNardo,72.94,124.74,61.23,117.93,303.91,SBD,3,
F,Raw,Amateur Open,,75,Alexandria Bizub,74.3,111.13,72.57,136.08,319.78,SBD,2,
F,Raw,Amateur Open,,75,Michelle Kania,71.03,108.86,70.31,156.49,335.66,SBD,1,
F,Wraps,Amateur Open,,75,Kelly Ur,74.93,99.79,68.04,117.93,285.76,SBD,3,
F,Wraps,Amateur Open,,75,Sandeep Dhillon,73.75,142.88,43.09,136.08,322.05,SBD,2,
F,Wraps,Amateur Open,,75,Angel Ebert,74.3,147.42,72.57,142.88,362.87,SBD,1,
F,Wraps,Amateur Submasters 33-39,,75,Nikki Klein,73.84,111.13,65.77,136.08,312.98,SBD,1,
F,Wraps,Pro Open,,75,Daniela Carolina Velez,74.98,179.17,63.5,179.17,421.84,SBD,2,
F,Wraps,Pro Open,,75,Stephanie Bucari-Wold,73.66,156.49,108.86,170.1,435.45,SBD,1,
F,Raw,Amateur Open,,82.5,Gabrielle Richa,80.01,108.86,52.16,136.08,297.1,SBD,3,
F,Raw,Amateur Open,,82.5,Tiffanie Zacher,82.19,102.06,63.5,136.08,301.64,SBD,2,
F,Raw,Amateur Open,,82.5,Sarah Paliotti,79.02,147.42,79.38,181.44,408.23,SBD,1,
F,Wraps,Pro Open,,82.5,Alissa Hermida,79.38,192.78,86.18,190.51,469.47,SBD,1,
F,Raw,Amateur Masters 40-44,,90,Kristen Strobel,87.54,115.67,58.97,136.08,310.71,SBD,1,
F,Raw,Amateur Open,,90,Colleen Berecsky,84.19,81.65,54.43,97.52,233.6,SBD,1,
F,Wraps,Pro Juniors 20-23,,90,Gwen Remaley,83.82,181.44,90.72,174.63,446.79,SBD,1,
F,Raw,Amateur Masters 50-54,,100,Joanne Lukowiak,99.97,,56.7,117.93,174.63,BD,1,
F,Raw,Amateur Open,,75,Carol Rose,70.67,,72.57,127.01,199.58,BD,1,
F,Raw,Amateur Masters 40-44,,67.5,Charlotte Keller,63.41,,72.57,,72.57,B,1,
F,Raw,Amateur Open,,75,Danyelle Dell'Olio,73.84,,72.57,,72.57,B,2,
F,Raw,Amateur Open,,75,Carol Rose,70.67,,72.57,,72.57,B,1,
F,Raw,Pro Submasters 33-39,,75,Sabrina Omand,74.66,,106.59,,106.59,B,1,
F,Raw,Amateur Open,,75,Carol Rose,70.67,,,127.01,127.01,D,1,
F,Raw,Amateur Open,,82.5,Marcia Marchese,78.29,,40.82,72.57,113.4,BD,1,
F,Wraps,Pro Open,,67.5,Melanie Joseph,66.22,149.69,81.65,176.9,408.23,SBD,1,
F,Wraps,Pro Open,,100,Katrina Bielomyza,92.53,229.06,136.08,217.72,582.87,SBD,1,
M,Wraps,Amateur Youth,12,75,Brandon Toranzo,74.39,149.69,63.5,136.08,349.27,SBD,1,
M,Wraps,Amateur Teen 14-15,,67.5,Elijah Moschella,67.49,147.42,83.91,151.95,383.29,SBD,1,
M,Wraps,Amateur Teen 18-19,,67.5,Joe Rocker,67.13,140.61,102.06,183.7,426.38,SBD,1,
M,Wraps,Amateur Teen 18-19,,90,Baher Habib,88.45,176.9,97.52,183.7,458.13,SBD,1,
M,Wraps,Amateur Teen 18-19,,100,Richard Brack,90.17,213.19,113.4,226.8,553.38,SBD,2,
M,Wraps,Amateur Teen 18-19,,110,Nick Fresoli,109.95,190.51,106.59,,,SBD,DQ,
M,Wraps,Amateur Teen 18-19,,125,Giancarlo Camacho,119.2,208.65,140.61,217.72,566.99,SBD,1,
M,Raw,Police Amateur Open,,67.5,Joey Formantes,66.32,117.93,90.72,136.08,344.73,SBD,1,
M,Raw,Amateur Open,,67.5,Joey Formantes,66.32,117.93,90.72,136.08,344.73,SBD,2,
M,Raw,Amateur Open,,67.5,Domenick Gramuglia,66.04,127.01,111.13,149.69,387.82,SBD,1,
M,Raw,Military Amateur Open,,75,Mario Flotta,73.12,170.1,115.67,192.78,478.54,SBD,1,
M,Raw,Amateur Open,,75,Mario Flotta,73.12,170.1,115.67,192.78,478.54,SBD,2,
M,Wraps,Amateur Juniors 20-23,,75,Vince Calupad,71.3,183.7,108.86,219.99,512.56,SBD,1,
M,Wraps,Amateur Masters 55-59,,75,Richard Walsh,73.12,172.37,104.33,201.85,478.54,SBD,1,
M,Wraps,Amateur Open,,75,Billy Walsh,70.58,172.37,99.79,226.8,498.95,SBD,2,
M,Wraps,Elite Open,,75,Anthony Creatura,74.39,282.36,158.76,276.69,717.81,SBD,1,
M,Raw,Amateur Open,,82.5,Shaam Brown,75.48,185.97,149.69,192.78,528.44,SBD,3,
M,Raw,Amateur Open,,82.5,Garrett Parker,79.92,192.78,117.93,242.67,553.38,SBD,2,
M,Wraps,Amateur Juniors 20-23,,82.5,Vincent Torsiello,76.38,154.22,131.54,226.8,512.56,SBD,2,
M,Wraps,Amateur Juniors 20-23,,82.5,Nick Bianco,80.83,206.38,136.08,210.92,553.38,SBD,1,
M,Wraps,Amateur Masters 50-54,,82.5,Matt Kovacs,81.56,213.19,151.95,226.8,591.94,SBD,1,
M,Wraps,Amateur Open,,82.5,Nelson Tong,81.28,165.56,111.13,190.51,467.2,SBD,4,
M,Wraps,Amateur Open,,82.5,John Stevenson,79.56,190.51,124.74,206.38,521.63,SBD,2,
M,Wraps,Pro Open,,82.5,Brandon Pavel,78.93,199.58,161.03,,,SBD,DQ,
M,Raw,Amateur Juniors 20-23,,90,Jacob Kolvites,87.36,142.88,127.01,195.04,464.93,SBD,2,
M,Raw,Amateur Open,,90,Ryan Poeldnurk,87.45,199.58,140.61,260.82,601.01,SBD,2,
M,Raw,Amateur Open,,90,Nick Wasylyshyn,86,215.46,131.54,283.5,630.49,SBD,1,
M,Raw,Amateur Submasters 33-39,,90,James Dawson,87.09,158.76,120.2,204.12,483.08,SBD,1,
M,Wraps,Amateur Juniors 20-23,,90,Nicholas Bielawa,87.82,232.47,120.2,272.16,624.82,SBD,1,
M,Wraps,Amateur Open,,90,Mark Reilly,87.72,226.8,138.35,226.8,591.94,SBD,2,
M,Wraps,Amateur Open,,90,Nolan Linaberry,87.27,215.46,147.42,238.14,601.01,SBD,1,
M,Wraps,Elite Open,,90,Brandon Densmore,87.91,258.55,149.69,258.55,666.78,SBD,1,
M,Wraps,Amateur Open,,100,Christopher Ribaudo,92.62,154.22,111.13,176.9,442.25,SBD,2,
M,Wraps,Amateur Open,,125,Andrew Pfefferle,112.85,272.16,129.27,249.48,650.91,SBD,3,
M,Raw,Pro Open,,90,Christopher Jones #5,87.36,,188.24,278.96,467.2,BD,1,
M,Raw,Pro Submasters 33-39,,90,Christopher Jones #5,87.36,,188.24,278.96,467.2,BD,1,
M,Raw,Pro Masters 45-49,,125,Alexander Omand,112.13,,154.22,,154.22,B,1,
M,Multi-ply,Pro Masters 45-49,,90,Paul M Emond,87.36,,256.28,,256.28,B,1,
M,Raw,Pro Open,,90,Mike Brown #5,89.9,,174.63,,174.63,B,1,
F,Raw,Amateur Open,,56,Salina Catani,55.79,115.67,61.23,124.74,301.64,SBD,1,
F,Wraps,Pro Open,,67.5,Chilasa King,66.59,140.61,77.11,151.95,369.68,SBD,3,
M,Wraps,Amateur Juniors 20-23,,67.5,Johnatan Aragon,65.68,170.1,115.67,195.04,480.81,SBD,2,
M,Wraps,Amateur Juniors 20-23,,67.5,Brian Melville,67.04,176.9,131.54,213.19,521.63,SBD,1,
M,Wraps,Amateur Open,,67.5,Cris Racelis,64.05,176.9,117.93,233.6,528.44,SBD,1,
M,Raw,Amateur Juniors 20-23,,75,Eric Heckelmann,73.57,197.31,122.47,235.87,555.65,SBD,1,
M,Raw,Amateur Open,,75,Jose Guevara,73.75,170.1,106.59,210.92,487.61,SBD,1,
M,Raw,Amateur Teen 18-19,,75,Kevin Kahwaty,72.85,185.97,113.4,216.59,515.96,SBD,1,
M,Wraps,Amateur Juniors 20-23,,75,Matthew Pestonit,74.75,165.56,127.01,201.85,494.42,SBD,2,
M,Wraps,Amateur Open,,75,Omar Ospino,71.49,201.85,140.61,201.85,544.31,SBD,1,
M,Raw,Amateur Open,,82.5,Michael Hookham,79.83,190.51,140.61,249.48,580.6,SBD,1,
M,Wraps,Amateur Juniors 20-23,,82.5,Nicholas Thompson,76.38,115.67,86.18,142.88,344.73,SBD,3,
M,Wraps,Amateur Open,,82.5,Marc St Gourdin,80.83,158.76,111.13,229.06,498.95,SBD,3,
M,Wraps,Amateur Open,,82.5,Luis Guevara,80.74,233.6,154.22,233.6,621.42,SBD,1,
M,Wraps,Amateur Teen 18-19,,82.5,Resul Maksut,77.2,131.54,88.45,151.95,371.95,SBD,1,
M,Wraps,Pro Juniors 20-23,,82.5,Darius Bunch,80.01,247.21,170.1,265.35,682.66,SBD,1,
M,Wraps,Pro Open,,82.5,Darius Bunch,80.01,247.21,170.1,265.35,682.66,SBD,1,
M,Raw,Amateur Juniors 20-23,,90,Thang Ngo,87.72,226.8,151.95,265.35,644.1,SBD,1,
M,Raw,Amateur Open,,90,Nico Tirado,89.36,190.51,124.74,210.92,526.17,SBD,3,
M,Wraps,Amateur Juniors 20-23,,90,Raymond Martinez,86.82,165.56,142.88,206.38,514.83,SBD,3,
M,Wraps,Amateur Juniors 20-23,,90,Bryce Scott,87.45,217.72,133.81,265.35,616.89,SBD,2,
M,Wraps,Amateur Open,,90,Omer Baldo,85,165.56,136.08,213.19,514.83,SBD,4,
M,Wraps,Amateur Open,,90,Jeff Hartrey,88.36,197.31,111.13,254.01,562.45,SBD,3,
M,Wraps,Amateur Submasters 33-39,,90,Hector Martinez Jr,88.81,190.51,147.42,217.72,555.65,SBD,1,
M,Wraps,Elite Open,,90,Isiah Marseille,87.82,233.6,172.37,215.46,621.42,SBD,2,
M,Wraps,Pro Open,,90,Justin Jung,85.09,201.85,149.69,244.94,596.47,SBD,1,
M,Raw,Amateur Open,,100,Dwight Harbin,90.63,56.7,54.43,122.47,233.6,SBD,3,
M,Raw,Amateur Open,,100,Dale Tapps,96.07,167.83,133.81,226.8,528.44,SBD,2,
M,Raw,Amateur Open,,100,Shaquillie Lawrence,95.98,204.12,176.9,231.33,612.35,SBD,1,
M,Raw,Military Amateur Open,,100,Shaquillie Lawrence,95.98,204.12,176.9,231.33,612.35,SBD,1,
M,Raw,Amateur Teen 14-15,,100,Micheal Toranzo,96.89,204.12,122.47,204.12,530.7,SBD,1,
M,Wraps,Amateur Juniors 20-23,,100,Dennis Kolenovic,99.52,197.31,124.74,256.28,578.33,SBD,2,
M,Wraps,Amateur Juniors 20-23,,100,Wyatt Clements,96.71,265.35,167.83,249.48,682.66,SBD,1,
M,Wraps,Amateur Masters 40-44,,100,James Pannullo,95.89,213.19,140.61,258.55,612.35,SBD,1,
M,Wraps,Amateur Masters 45-49,,100,John Lockwood,97.25,208.65,138.35,238.14,585.13,SBD,1,
M,Wraps,Amateur Open,,100,Blaise Sardanelli,97.43,208.65,185.97,274.42,669.05,SBD,1,
M,Wraps,Amateur Teen 18-19,,100,William Fuentes,98.34,199.58,140.61,240.4,580.6,SBD,1,
M,Wraps,Police Amateur Open,,100,Steven Pell,95.71,181.44,120.2,192.78,494.42,SBD,1,
M,Wraps,Police Pro Open,,100,Richard Ruiz #1,97.25,272.16,183.7,294.84,750.7,SBD,1,
M,Raw,Pro Open,,100,Joseph Hannon,98.07,197.31,161.03,331.12,689.46,SBD,3,
M,Wraps,Pro Open,,100,Richard Ruiz #1,97.25,272.16,183.7,294.84,750.7,SBD,2,
M,Wraps,Pro Open,,100,Nick Sedar,98.97,303.91,181.44,285.76,771.11,SBD,1,
M,Multi-ply,Amateur Open,,110,Donald Thompsett,106.68,297.1,208.65,219.99,725.75,SBD,1,
M,Raw,Pro Masters 45-49,,110,Alex Hilgetag,103.69,192.78,147.42,235.87,576.06,SBD,1,
M,Wraps,Amateur Juniors 20-23,,110,Gerald Hall III,104.33,183.7,179.17,265.35,628.23,SBD,1,
M,Wraps,Amateur Open,,110,Paul Ellsworth,105.87,229.06,145.15,226.8,601.01,SBD,1,
M,Wraps,Police Pro Open,,110,Sean Higgins,103.87,233.6,163.29,278.96,675.85,SBD,1,
M,Wraps,Pro Juniors 20-23,,110,Nick Rice,104.87,333.39,195.04,340.19,868.63,SBD,1,
M,Wraps,Pro Masters 40-44,,110,Jim Waldron,105.05,219.99,170.1,181.44,571.53,SBD,1,
M,Wraps,Pro Open,,110,Kenny Kim,107.68,210.92,138.35,238.14,587.4,SBD,7,
M,Wraps,Pro Open,,110,Matthew Fredericks,108.5,224.53,181.44,238.14,644.1,SBD,6,
M,Wraps,Pro Open,,110,Manuel Bencosme,104.6,251.74,142.88,258.55,653.17,SBD,5,
M,Wraps,Pro Open,,110,Sean Higgins,103.87,233.6,163.29,278.96,675.85,SBD,4,
M,Wraps,Pro Open,,110,Paul Melicharek,107.23,281.23,172.37,308.44,762.04,SBD,3,
M,Wraps,Pro Open,,110,John Paluk,104.6,278.96,197.31,294.84,771.11,SBD,2,
M,Wraps,Pro Open,,110,Justin Conte,105.32,303.91,179.17,299.37,782.45,SBD,1,
M,Raw,Pro Open,,125,Nick Pierson,124.38,335.66,222.26,308.44,866.36,SBD,1,
M,Raw,Pro Submasters 33-39,,125,Gary Miller #1,119.48,310.71,208.65,319.78,839.15,SBD,1,
M,Wraps,Amateur Open,,125,Jorge A Madan,115.67,249.48,149.69,256.28,655.44,SBD,2,
M,Wraps,Amateur Open,,125,John Faccas,116.3,285.76,181.44,263.08,730.28,SBD,1,
M,Wraps,Military Amateur Open,,125,Jorge A Madan,115.67,249.48,149.69,256.28,655.44,SBD,1,
M,Wraps,Police Amateur Open,,125,Izzie E Machado,114.12,272.16,197.31,260.82,730.28,SBD,1,
M,Wraps,Pro Juniors 20-23,,125,Irasec Liz,112.58,285.76,185.97,276.69,748.43,SBD,1,
M,Wraps,Pro Open,,125,Marcos Molina,118.12,249.48,176.9,294.84,721.21,SBD,3,
M,Wraps,Pro Open,,125,Nick Wheeler,118.21,292.57,206.38,340.19,839.15,SBD,2,1993-04-04
M,Wraps,Pro Open,,125,Nick Molteni,117.75,322.05,206.38,335.66,864.09,SBD,1,
M,Wraps,Pro Submasters 33-39,,125,Gary Miller #1,119.48,333.39,208.65,319.78,861.83,SBD,1,
M,Raw,Amateur Juniors 20-23,,140,Joshua Joseph Marchese,132.09,204.12,124.74,226.8,555.65,SBD,1,
M,Raw,Pro Open,,140+,Scott Blum,161.39,274.42,,,,SBD,DQ,
M,Raw,Amateur Open,,100,Andrew Donchez,95.53,,147.42,229.06,376.48,BD,3,
M,Raw,Amateur Open,,100,Peter E Lembesis,97.79,,149.69,251.74,401.43,BD,2,
M,Raw,Amateur Open,,100,Matthew Hicks,92.9,,181.44,283.5,464.93,BD,1,
M,Raw,Amateur Open,,82.5,Lukasz Falda,76.84,147.42,,,147.42,S,1,
M,Raw,Amateur Open,,82.5,Lukasz Falda,76.84,,,201.85,201.85,D,1,
M,Raw,Amateur Masters 50-54,,90,Steven Valenzano,89.27,,131.54,,131.54,B,1,
M,Raw,Amateur Teen 16-17,,100,Jared Piwowarski,91.44,,125.87,,125.87,B,1,
M,Multi-ply,Pro Open,,140+,Nick Curl,159.76,,,,,B,DQ,
M,Raw,Pro Juniors 20-23,,140,Devawn Gladney,135.62,,,319.78,319.78,D,1,
